{
    "materia":"JavaScript",
    "profesor":{
        "nombre":"Jose Rojas",
        "correo":"joselrojas@cadif1.com"
    },
    "horario":"lunes de 7:15 a 11am",
    "prerequisitos":[
        "HTML Nivel 1",
        "Logica de programacion nivel 1"
    ],
    "alumnos":[
        {
            "nombre":"jose",
            "edad":42,
            "fechaNac":{
                "dia":20,
                "mes":10,
                "año":1995
            }
        },
        {
            "nombre":"josbert",
            "edad":42
        },
        {

        }
    ]
}